%YAML 1.1
%TAG !u! tag:unity3d.com,2011:
--- !u!1 &8745996803436701586
GameObject:
  m_ObjectHideFlags: 0
  m_CorrespondingSourceObject: {fileID: 0}
  m_PrefabInstance: {fileID: 0}
  m_PrefabAsset: {fileID: 0}
  serializedVersion: 6
  m_Component:
  - component: {fileID: 6334725195590458048}
  - component: {fileID: 4520447928026039698}
  - component: {fileID: 5815362197942416470}
  - component: {fileID: 5041683681316397735}
  - component: {fileID: 970548026261428995}
  - component: {fileID: -8367785523638725931}
  m_Layer: 0
  m_Name: Mouse
  m_TagString: Enemy
  m_Icon: {fileID: 0}
  m_NavMeshLayer: 0
  m_StaticEditorFlags: 0
  m_IsActive: 1
--- !u!4 &6334725195590458048
Transform:
  m_ObjectHideFlags: 0
  m_CorrespondingSourceObject: {fileID: 0}
  m_PrefabInstance: {fileID: 0}
  m_PrefabAsset: {fileID: 0}
  m_GameObject: {fileID: 8745996803436701586}
  m_LocalRotation: {x: 0, y: 0, z: 0, w: 1}
  m_LocalPosition: {x: 4.99, y: 1.02, z: 0}
  m_LocalScale: {x: 0.9, y: 0.9, z: 1}
  m_ConstrainProportionsScale: 0
  m_Children: []
  m_Father: {fileID: 0}
  m_RootOrder: 0
  m_LocalEulerAnglesHint: {x: 0, y: 0, z: 0}
--- !u!212 &4520447928026039698
SpriteRenderer:
  m_ObjectHideFlags: 0
  m_CorrespondingSourceObject: {fileID: 0}
  m_PrefabInstance: {fileID: 0}
  m_PrefabAsset: {fileID: 0}
  m_GameObject: {fileID: 8745996803436701586}
  m_Enabled: 1
  m_CastShadows: 0
  m_ReceiveShadows: 0
  m_DynamicOccludee: 1
  m_StaticShadowCaster: 0
  m_MotionVectors: 1
  m_LightProbeUsage: 1
  m_ReflectionProbeUsage: 1
  m_RayTracingMode: 0
  m_RayTraceProcedural: 0
  m_RenderingLayerMask: 1
  m_RendererPriority: 0
  m_Materials:
  - {fileID: 10754, guid: 0000000000000000f000000000000000, type: 0}
  m_StaticBatchInfo:
    firstSubMesh: 0
    subMeshCount: 0
  m_StaticBatchRoot: {fileID: 0}
  m_ProbeAnchor: {fileID: 0}
  m_LightProbeVolumeOverride: {fileID: 0}
  m_ScaleInLightmap: 1
  m_ReceiveGI: 1
  m_PreserveUVs: 0
  m_IgnoreNormalsForChartDetection: 0
  m_ImportantGI: 0
  m_StitchLightmapSeams: 1
  m_SelectedEditorRenderState: 0
  m_MinimumChartSize: 4
  m_AutoUVMaxDistance: 0.5
  m_AutoUVMaxAngle: 89
  m_LightmapParameters: {fileID: 0}
  m_SortingLayerID: 0
  m_SortingLayer: 0
  m_SortingOrder: -1
  m_Sprite: {fileID: 21300000, guid: d33877ab8019d5c40be969f732f026b7, type: 3}
  m_Color: {r: 1, g: 1, b: 1, a: 1}
  m_FlipX: 0
  m_FlipY: 0
  m_DrawMode: 0
  m_Size: {x: 1, y: 1}
  m_AdaptiveModeThreshold: 0.5
  m_SpriteTileMode: 0
  m_WasSpriteAssigned: 1
  m_MaskInteraction: 0
  m_SpriteSortPoint: 0
--- !u!114 &5815362197942416470
MonoBehaviour:
  m_ObjectHideFlags: 0
  m_CorrespondingSourceObject: {fileID: 0}
  m_PrefabInstance: {fileID: 0}
  m_PrefabAsset: {fileID: 0}
  m_GameObject: {fileID: 8745996803436701586}
  m_Enabled: 1
  m_EditorHideFlags: 0
  m_Script: {fileID: 11500000, guid: e741851cba3ad425c91ecf922cc6b379, type: 3}
  m_Name: 
  m_EditorClassIdentifier: 
  _data:
    _json: '{"declarations":{"Kind":"Object","collection":{"$content":[],"$version":"A"},"$version":"A"}}'
    _objectReferences: []
--- !u!114 &5041683681316397735
MonoBehaviour:
  m_ObjectHideFlags: 0
  m_CorrespondingSourceObject: {fileID: 0}
  m_PrefabInstance: {fileID: 0}
  m_PrefabAsset: {fileID: 0}
  m_GameObject: {fileID: 8745996803436701586}
  m_Enabled: 1
  m_EditorHideFlags: 0
  m_Script: {fileID: 11500000, guid: d2fe5546f775c47d2820aa5e8a715f53, type: 3}
  m_Name: 
  m_EditorClassIdentifier: 
  _data:
    _json: '{"nest":{"source":"Embed","macro":null,"embed":{"variables":{"Kind":"Flow","collection":{"$content":[],"$version":"A"},"$version":"A"},"controlInputDefinitions":[],"controlOutputDefinitions":[],"valueInputDefinitions":[],"valueOutputDefinitions":[],"title":"MouseScript","summary":null,"pan":{"x":230.2609,"y":307.8118},"zoom":0.5300001,"elements":[{"chainable":false,"parameterNames":["tag"],"member":{"name":"CompareTag","parameterTypes":["System.String"],"targetType":"UnityEngine.GameObject","targetTypeName":"UnityEngine.GameObject","$version":"A"},"defaultValues":{"target":null,"%tag":{"$content":"Player","$type":"System.String"}},"position":{"x":120.0,"y":-134.0},"guid":"1a10b483-358b-4d8b-854c-1e5ae97fcd36","$version":"A","$type":"Unity.VisualScripting.InvokeMember","$id":"10"},{"defaultValues":{"input":{"$content":0.0,"$type":"System.Single"}},"position":{"x":-150.0,"y":525.0},"guid":"5a74a149-8f4e-45ae-ba5d-61eb4b7dc07c","$version":"A","$type":"Unity.VisualScripting.ScalarPerSecond","$id":"14"},{"type":"UnityEngine.GameObject","value":{"$content":0,"$type":"UnityEngine.Object"},"defaultValues":{},"position":{"x":398.0,"y":104.0},"guid":"851aa6a5-b132-4967-bc2d-2f15253af9c7","$version":"A","$type":"Unity.VisualScripting.Literal","$id":"16"},{"specifyFallback":false,"kind":"Scene","defaultValues":{"name":{"$content":"Mouse_Speed","$type":"System.String"}},"position":{"x":-380.0,"y":518.0},"guid":"295845d0-d528-42b5-b581-182b9e855ba2","$version":"A","$type":"Unity.VisualScripting.GetVariable","$id":"18"},{"member":{"name":"gameObject","parameterTypes":null,"targetType":"UnityEngine.GameObject","targetTypeName":"UnityEngine.GameObject","$version":"A"},"defaultValues":{"target":null},"position":{"x":-179.0,"y":52.0},"guid":"c873f0b1-8032-4846-863a-f9d3c852da88","$version":"A","$type":"Unity.VisualScripting.GetMember","$id":"20"},{"defaultValues":{},"position":{"x":381.0,"y":-137.0},"guid":"343d9a75-8927-462a-a270-87b5e0a6386b","$version":"A","$type":"Unity.VisualScripting.If","$id":"23"},{"coroutine":false,"defaultValues":{"target":{"$content":1,"$type":"UnityEngine.Object"}},"position":{"x":-488.0,"y":-127.0},"guid":"de970de3-c57a-4e9f-9aef-44e1bb530977","$version":"A","$type":"Unity.VisualScripting.OnTriggerEnter2D","$id":"25"},{"chainable":false,"parameterNames":["x","y","z"],"member":{"name":"Translate","parameterTypes":["System.Single","System.Single","System.Single"],"targetType":"UnityEngine.Transform","targetTypeName":"UnityEngine.Transform","$version":"A"},"defaultValues":{"target":null,"%x":{"$content":0.0,"$type":"System.Single"},"%y":{"$content":0.0,"$type":"System.Single"},"%z":{"$content":0.0,"$type":"System.Single"}},"position":{"x":383.0,"y":387.0},"guid":"4a4eea2d-54e4-4d5c-b131-49176f806d24","$version":"A","$type":"Unity.VisualScripting.InvokeMember","$id":"27"},{"chainable":false,"parameterNames":["obj","t"],"member":{"name":"Destroy","parameterTypes":["UnityEngine.Object","System.Single"],"targetType":"UnityEngine.Component","targetTypeName":"UnityEngine.Component","$version":"A"},"defaultValues":{"%obj":{"$content":2,"$type":"UnityEngine.Object"},"%t":{"$content":12.0,"$type":"System.Single"}},"position":{"x":658.0,"y":399.0},"guid":"7a7380e2-1655-4371-ab56-ed29e770fa59","$version":"A","$type":"Unity.VisualScripting.InvokeMember","$id":"31"},{"coroutine":false,"defaultValues":{},"position":{"x":-228.0,"y":393.0},"guid":"74c6177e-44bb-467f-b94b-544cd060a338","$version":"A","$type":"Unity.VisualScripting.Update","$id":"35"},{"chainable":false,"parameterNames":["obj"],"member":{"name":"Destroy","parameterTypes":["UnityEngine.Object"],"targetType":"UnityEngine.Component","targetTypeName":"UnityEngine.Component","$version":"A"},"defaultValues":{"%obj":null},"position":{"x":697.0,"y":-69.0},"guid":"09d1961c-3c65-4dd2-bcfc-8424855acd05","$version":"A","$type":"Unity.VisualScripting.InvokeMember","$id":"37"},{"sourceUnit":{"$ref":"10"},"sourceKey":"exit","destinationUnit":{"$ref":"23"},"destinationKey":"enter","guid":"339da437-66a8-4252-ba95-dc4298b89758","$type":"Unity.VisualScripting.ControlConnection"},{"sourceUnit":{"$ref":"35"},"sourceKey":"trigger","destinationUnit":{"$ref":"27"},"destinationKey":"enter","guid":"b050a737-f6f9-450a-a8d3-37e78787477f","$type":"Unity.VisualScripting.ControlConnection"},{"sourceUnit":{"$ref":"25"},"sourceKey":"trigger","destinationUnit":{"$ref":"10"},"destinationKey":"enter","guid":"7df26a7f-23c7-4505-8756-4d082b671345","$type":"Unity.VisualScripting.ControlConnection"},{"sourceUnit":{"$ref":"23"},"sourceKey":"ifTrue","destinationUnit":{"$ref":"37"},"destinationKey":"enter","guid":"a71896ae-4ce5-445a-8be2-3017ed32dd69","$type":"Unity.VisualScripting.ControlConnection"},{"sourceUnit":{"$ref":"27"},"sourceKey":"exit","destinationUnit":{"$ref":"31"},"destinationKey":"enter","guid":"9a329195-074d-409b-951a-51e551430d39","$type":"Unity.VisualScripting.ControlConnection"},{"sourceUnit":{"$ref":"20"},"sourceKey":"value","destinationUnit":{"$ref":"10"},"destinationKey":"target","guid":"f8cdb707-6abe-405f-9709-1f11082d7fff","$type":"Unity.VisualScripting.ValueConnection"},{"sourceUnit":{"$ref":"16"},"sourceKey":"output","destinationUnit":{"$ref":"37"},"destinationKey":"%obj","guid":"75008fb5-0f05-44af-8283-88472d913d47","$type":"Unity.VisualScripting.ValueConnection"},{"sourceUnit":{"$ref":"10"},"sourceKey":"result","destinationUnit":{"$ref":"23"},"destinationKey":"condition","guid":"f9f8eaba-9c5d-437e-8c7f-293c465e620a","$type":"Unity.VisualScripting.ValueConnection"},{"sourceUnit":{"$ref":"25"},"sourceKey":"collider","destinationUnit":{"$ref":"20"},"destinationKey":"target","guid":"9b5c279a-1acd-430b-9de1-16e592cab10c","$type":"Unity.VisualScripting.ValueConnection"},{"sourceUnit":{"$ref":"18"},"sourceKey":"value","destinationUnit":{"$ref":"14"},"destinationKey":"input","guid":"ed3b517b-ab3a-473f-8ae5-9e29c4f8c005","$type":"Unity.VisualScripting.ValueConnection"},{"sourceUnit":{"$ref":"14"},"sourceKey":"output","destinationUnit":{"$ref":"27"},"destinationKey":"%x","guid":"64436466-8b81-4b96-b6f4-83170a9fd651","$type":"Unity.VisualScripting.ValueConnection"}],"$version":"A"}}}'
    _objectReferences:
    - {fileID: 8745996803436701586}
    - {fileID: 8745996803436701586}
    - {fileID: 8745996803436701586}
--- !u!61 &970548026261428995
BoxCollider2D:
  m_ObjectHideFlags: 0
  m_CorrespondingSourceObject: {fileID: 0}
  m_PrefabInstance: {fileID: 0}
  m_PrefabAsset: {fileID: 0}
  m_GameObject: {fileID: 8745996803436701586}
  m_Enabled: 1
  m_Density: 1
  m_Material: {fileID: 0}
  m_IncludeLayers:
    serializedVersion: 2
    m_Bits: 0
  m_ExcludeLayers:
    serializedVersion: 2
    m_Bits: 0
  m_LayerOverridePriority: 0
  m_ForceSendLayers:
    serializedVersion: 2
    m_Bits: 4294967295
  m_ForceReceiveLayers:
    serializedVersion: 2
    m_Bits: 4294967295
  m_ContactCaptureLayers:
    serializedVersion: 2
    m_Bits: 4294967295
  m_CallbackLayers:
    serializedVersion: 2
    m_Bits: 4294967295
  m_IsTrigger: 1
  m_UsedByEffector: 0
  m_UsedByComposite: 0
  m_Offset: {x: 0.04868573, y: 0.08276576}
  m_SpriteTilingProperty:
    border: {x: 0, y: 0, z: 0, w: 0}
    pivot: {x: 0.5, y: 0.5}
    oldSize: {x: 2.13, y: 1.24}
    newSize: {x: 1, y: 1}
    adaptiveTilingThreshold: 0.5
    drawMode: 0
    adaptiveTiling: 0
  m_AutoTiling: 0
  serializedVersion: 2
  m_Size: {x: 1.6426517, y: 0.8344685}
  m_EdgeRadius: 0
--- !u!114 &-8367785523638725931
MonoBehaviour:
  m_ObjectHideFlags: 0
  m_CorrespondingSourceObject: {fileID: 0}
  m_PrefabInstance: {fileID: 0}
  m_PrefabAsset: {fileID: 0}
  m_GameObject: {fileID: 8745996803436701586}
  m_Enabled: 1
  m_EditorHideFlags: 0
  m_Script: {fileID: 11500000, guid: da57800110fd423681b87299d829e80b, type: 3}
  m_Name: 
  m_EditorClassIdentifier: 
